{
  "definitions": {
    "BoundingBox": {
      "properties": {
        "annotationText": {
          "description": "Annotation Text", 
          "type": "string"
        }, 
        "breadth": {
          "type": "number"
        }, 
        "length": {
          "type": "number"
        }, 
        "x1": {
          "type": "number"
        }, 
        "y1": {
          "type": "number"
        }
      }, 
      "type": "object"
    }, 
    "BoundingBoxRequest": {
      "properties": {
        "image": {
          "description": "DICOM Image"
        }, 
        "model": {
          "description": "Model Name", 
          "type": "string"
        }, 
        "modelVersion": {
          "description": "Model Version", 
          "type": "string"
        }
      }, 
      "type": "object"
    }, 
    "BoundingBoxResponse": {
      "properties": {
        "data": {
          "items": {
            "$ref": "#/definitions/BoundingBox"
          }, 
          "type": "array"
        }, 
        "model": {
          "type": "string"
        }, 
        "status": {
          "type": "string"
        }
      }, 
      "required": [
        "model", 
        "status"
      ], 
      "type": "object"
    }, 
    "ModelDetails": {
      "properties": {
        "model": {
          "description": "Models", 
          "type": "string"
        }, 
        "version": {
          "description": "Model Version", 
          "type": "string"
        }
      }, 
      "type": "object"
    }, 
    "ModelList": {
      "properties": {
        "data": {
          "items": {
            "$ref": "#/definitions/ModelDetails"
          }, 
          "type": "array"
        }, 
        "status": {
          "type": "string"
        }
      }, 
      "required": [
        "status"
      ], 
      "type": "object"
    }, 
    "ModelUpdateRequest": {
      "properties": {
        "annotationText": {
          "type": "string"
        }, 
        "image": {
          "description": "DICOM Image"
        }, 
        "model": {
          "type": "string"
        }, 
        "modelVersion": {
          "description": "Model Version Number", 
          "type": "number"
        }, 
        "x1": {
          "description": "x1 co-ordinate of Bounding Box", 
          "type": "number"
        }, 
        "x2": {
          "description": "x2 co-ordinate of Bounding Box", 
          "type": "number"
        }, 
        "x3": {
          "description": "x3 co-ordinate of Bounding Box", 
          "type": "number"
        }, 
        "x4": {
          "description": "x4 co-ordinate of Bounding Box", 
          "type": "number"
        }, 
        "y1": {
          "description": "y1 co-ordinate of Bounding Box", 
          "type": "number"
        }, 
        "y2": {
          "description": "y2 co-ordinate of Bounding Box", 
          "type": "number"
        }, 
        "y3": {
          "description": "y3 co-ordinate of Bounding Box", 
          "type": "number"
        }, 
        "y4": {
          "description": "y4 co-ordinate of Bounding Box", 
          "type": "number"
        }
      }, 
      "type": "object"
    }, 
    "ModelUpdateResponse": {
      "properties": {
        "model": {
          "type": "string"
        }, 
        "modelVersion": {
          "type": "string"
        }, 
        "status": {
          "type": "string"
        }
      }, 
      "required": [
        "model", 
        "modelVersion", 
        "status"
      ], 
      "type": "object"
    }
  }, 
  "info": {
    "title": "AI Model Service", 
    "version": "v1"
  }, 
  "paths": {
    "/bounding-box": {
      "get": {
        "description": "Returns the list of Bounding Box models with the model versions", 
        "parameters": [], 
        "responses": {
          "default": {
            "description": "", 
            "schema": {
              "$ref": "#/definitions/ModelList"
            }
          }
        }, 
        "summary": "Get Bounding Box Models", 
        "tags": [
          "Bounding Box"
        ]
      }, 
      "post": {
        "description": "Returns the Bounding Boxes for the DICOM Image with the Annotation Text and the coordinates", 
        "parameters": [
          {
            "in": "body", 
            "name": "body", 
            "required": false, 
            "schema": {
              "$ref": "#/definitions/BoundingBoxRequest"
            }
          }
        ], 
        "responses": {
          "default": {
            "description": "", 
            "schema": {
              "$ref": "#/definitions/BoundingBoxResponse"
            }
          }
        }, 
        "summary": "Get Annotation Text and Bounding Boxes for DICOM", 
        "tags": [
          "Bounding Box"
        ]
      }
    }, 
    "/model-update": {
      "post": {
        "description": "Updates the Bounding Box model based on the image and co-ordinates", 
        "parameters": [
          {
            "in": "body", 
            "name": "body", 
            "required": false, 
            "schema": {
              "$ref": "#/definitions/ModelUpdateRequest"
            }
          }
        ], 
        "responses": {
          "default": {
            "description": "", 
            "schema": {
              "$ref": "#/definitions/ModelUpdateResponse"
            }
          }
        }, 
        "summary": "Update Bounding Box model", 
        "tags": [
          "Update Model"
        ]
      }
    }, 
    "/models": {
      "get": {
        "description": "Returns the list of all available models in the system", 
        "parameters": [], 
        "responses": {
          "default": {
            "description": "", 
            "schema": {
              "$ref": "#/definitions/ModelList"
            }
          }
        }, 
        "summary": "Get all Models", 
        "tags": [
          "Models"
        ]
      }
    }
  }, 
  "swagger": "2.0"
}